INDEX VERSION 1.131+D:\QualityKioskTraining\SeleniumScripts\.metadata\.plugins\org.eclipse.jdt.core
235157837.index
3578854188.index
3625685144.index
1734666057.index
3402655447.index
2709601075.index
1338279576.index
1725361003.index
1658322558.index
2605684600.index
1960055308.index
1802002899.index
3563072708.index
4244625761.index
107593630.index
3895552392.index
3304821105.index
3723500872.index
3768267985.index
1432381725.index
600129014.index
2263104185.index
225304515.index
302890730.index
1454447153.index
316256449.index
1055144991.index
3960167400.index
2266245976.index
3315533646.index
1602398453.index
762615930.index
3819344017.index
1638373347.index
1835283423.index
2644717660.index
